<svg width="26" height="18" viewBox="0 0 26 18" fill="none" xmlns="http://www.w3.org/2000/svg">
<path d="M21.4212 3.59371L13.0016 11.013L4.58015 3.5936C4.24483 3.29818 3.7337 3.33064 3.43839 3.66575C3.14318 4.00097 3.17532 4.5121 3.51065 4.80752L12.4669 12.6982C12.6198 12.8328 12.8108 12.9001 13.0017 12.9001C13.1926 12.9001 13.3837 12.8328 13.5366 12.6981L22.491 4.80741C22.8261 4.5121 22.8584 4.00086 22.5631 3.66565C22.2675 3.33075 21.7565 3.29839 21.4212 3.59371Z" fill="#354657"/>
<path d="M23.5732 0.155762H2.42677C1.0887 0.155762 0 1.24436 0 2.58253V15.4177C0 16.7559 1.0887 17.8444 2.42677 17.8444H23.5732C24.9113 17.8444 26 16.7559 26 15.4177V2.58253C26 1.24447 24.9113 0.155762 23.5732 0.155762ZM24.3822 15.4177C24.3822 15.8637 24.0193 16.2266 23.5732 16.2266H2.42677C1.98068 16.2266 1.61785 15.8637 1.61785 15.4177V2.58253C1.61785 2.13655 1.98068 1.77361 2.42677 1.77361H23.5732C24.0193 1.77361 24.3822 2.13655 24.3822 2.58253V15.4177Z" fill="#354657"/>
</svg>
